{
  "Deploy": {
    "Project": {
      "Name": "good bye azure pack",
      "Alias": "good-bye-azure-pack",
      "Id": "a86ef002-1e14-44ff-8eed-73b71fd6f853",
      "Workspaces": [
        {
          "Id": "d9af2fc4-daa9-4d53-9a5f-1d533a6b34b9",
          "Name": "Live",
          "Type": "live",
          "Url": "https://good-bye-azure-pack.euwest01.umbraco.io"
        }
      ]
    },
    "Settings": {
      "ApiKey": "23354BDDBED149FE1F3BE1166740AD3985405BBB"
    }
  },
  "Identity": {
    "ClientId": "0297c0f6-83ad-4481-9ae2-07a3f5475333",
    "ClientSecret": "Q5~T526ixOHlj47lg7Mu7_.zN1fK.7ua.9",
    "EnvironmentId": "d9af2fc4-daa9-4d53-9a5f-1d533a6b34b9",
    "LocalLoginRedirectUri": "https://redirect.identity.umbraco.com"
  }
}